<?xml version="1.0" encoding="utf-8"?>
<!DOCTYPE eagle SYSTEM "eagle.dtd">
<eagle version="9.3.0">
<drawing>
<settings>
<setting alwaysvectorfont="yes"/>
<setting verticaltext="up"/>
</settings>
<grid distance="10" unitdist="mil" unit="mil" style="lines" multiple="1" display="no" altdistance="5" altunitdist="mil" altunit="mil"/>
<layers>
<layer number="1" name="Top" color="4" fill="1" visible="yes" active="yes"/>
<layer number="2" name="Route2" color="16" fill="1" visible="no" active="no"/>
<layer number="15" name="Route15" color="23" fill="1" visible="no" active="no"/>
<layer number="16" name="Bottom" color="1" fill="1" visible="yes" active="yes"/>
<layer number="17" name="Pads" color="2" fill="1" visible="yes" active="yes"/>
<layer number="18" name="Vias" color="2" fill="1" visible="yes" active="yes"/>
<layer number="19" name="Unrouted" color="6" fill="1" visible="yes" active="yes"/>
<layer number="20" name="Dimension" color="24" fill="1" visible="yes" active="yes"/>
<layer number="21" name="tPlace" color="7" fill="1" visible="yes" active="yes"/>
<layer number="22" name="bPlace" color="7" fill="1" visible="yes" active="yes"/>
<layer number="23" name="tOrigins" color="15" fill="1" visible="yes" active="yes"/>
<layer number="24" name="bOrigins" color="15" fill="1" visible="yes" active="yes"/>
<layer number="25" name="tNames" color="7" fill="1" visible="yes" active="yes"/>
<layer number="26" name="bNames" color="7" fill="1" visible="yes" active="yes"/>
<layer number="27" name="tValues" color="7" fill="1" visible="yes" active="yes"/>
<layer number="28" name="bValues" color="7" fill="1" visible="yes" active="yes"/>
<layer number="29" name="tStop" color="7" fill="3" visible="no" active="yes"/>
<layer number="30" name="bStop" color="7" fill="6" visible="no" active="yes"/>
<layer number="31" name="tCream" color="7" fill="4" visible="no" active="yes"/>
<layer number="32" name="bCream" color="7" fill="5" visible="no" active="yes"/>
<layer number="33" name="tFinish" color="6" fill="3" visible="no" active="yes"/>
<layer number="34" name="bFinish" color="6" fill="6" visible="no" active="yes"/>
<layer number="35" name="tGlue" color="7" fill="4" visible="no" active="yes"/>
<layer number="36" name="bGlue" color="7" fill="5" visible="no" active="yes"/>
<layer number="37" name="tTest" color="7" fill="1" visible="no" active="yes"/>
<layer number="38" name="bTest" color="7" fill="1" visible="no" active="yes"/>
<layer number="39" name="tKeepout" color="4" fill="11" visible="yes" active="yes"/>
<layer number="40" name="bKeepout" color="1" fill="11" visible="yes" active="yes"/>
<layer number="41" name="tRestrict" color="4" fill="10" visible="yes" active="yes"/>
<layer number="42" name="bRestrict" color="1" fill="10" visible="yes" active="yes"/>
<layer number="43" name="vRestrict" color="2" fill="10" visible="yes" active="yes"/>
<layer number="44" name="Drills" color="7" fill="1" visible="no" active="yes"/>
<layer number="45" name="Holes" color="7" fill="1" visible="no" active="yes"/>
<layer number="46" name="Milling" color="3" fill="1" visible="no" active="yes"/>
<layer number="47" name="Measures" color="7" fill="1" visible="no" active="yes"/>
<layer number="48" name="Document" color="7" fill="1" visible="yes" active="yes"/>
<layer number="49" name="Reference" color="7" fill="1" visible="yes" active="yes"/>
<layer number="50" name="dxf" color="7" fill="1" visible="no" active="no"/>
<layer number="51" name="tDocu" color="7" fill="1" visible="yes" active="yes"/>
<layer number="52" name="bDocu" color="7" fill="1" visible="yes" active="yes"/>
<layer number="53" name="tGND_GNDA" color="7" fill="9" visible="no" active="no"/>
<layer number="54" name="bGND_GNDA" color="1" fill="9" visible="no" active="no"/>
<layer number="56" name="wert" color="7" fill="1" visible="no" active="no"/>
<layer number="57" name="tCAD" color="7" fill="1" visible="no" active="no"/>
<layer number="59" name="tCarbon" color="7" fill="1" visible="no" active="no"/>
<layer number="60" name="bCarbon" color="7" fill="1" visible="no" active="no"/>
<layer number="88" name="SimResults" color="9" fill="1" visible="no" active="no"/>
<layer number="89" name="SimProbes" color="9" fill="1" visible="no" active="no"/>
<layer number="90" name="Modules" color="5" fill="1" visible="no" active="no"/>
<layer number="91" name="Nets" color="2" fill="1" visible="no" active="no"/>
<layer number="92" name="Busses" color="1" fill="1" visible="no" active="no"/>
<layer number="93" name="Pins" color="2" fill="1" visible="no" active="no"/>
<layer number="94" name="Symbols" color="4" fill="1" visible="no" active="no"/>
<layer number="95" name="Names" color="7" fill="1" visible="no" active="no"/>
<layer number="96" name="Values" color="7" fill="1" visible="no" active="no"/>
<layer number="97" name="Info" color="7" fill="1" visible="no" active="no"/>
<layer number="98" name="Guide" color="6" fill="1" visible="no" active="no"/>
<layer number="99" name="SpiceOrder" color="7" fill="1" visible="no" active="no"/>
<layer number="100" name="Muster" color="7" fill="1" visible="no" active="no"/>
<layer number="101" name="Patch_Top" color="12" fill="4" visible="no" active="yes"/>
<layer number="102" name="Vscore" color="7" fill="1" visible="no" active="yes"/>
<layer number="103" name="tMap" color="7" fill="1" visible="no" active="yes"/>
<layer number="104" name="Name" color="16" fill="1" visible="no" active="yes"/>
<layer number="105" name="tPlate" color="7" fill="1" visible="no" active="yes"/>
<layer number="106" name="bPlate" color="7" fill="1" visible="no" active="yes"/>
<layer number="107" name="Crop" color="7" fill="1" visible="no" active="yes"/>
<layer number="108" name="tplace-old" color="10" fill="1" visible="no" active="yes"/>
<layer number="109" name="ref-old" color="11" fill="1" visible="no" active="yes"/>
<layer number="110" name="fp0" color="7" fill="1" visible="no" active="yes"/>
<layer number="111" name="LPC17xx" color="7" fill="1" visible="no" active="yes"/>
<layer number="112" name="tSilk" color="7" fill="1" visible="no" active="yes"/>
<layer number="113" name="IDFDebug" color="7" fill="1" visible="no" active="yes"/>
<layer number="114" name="Badge_Outline" color="7" fill="1" visible="no" active="yes"/>
<layer number="115" name="ReferenceISLANDS" color="7" fill="1" visible="no" active="yes"/>
<layer number="116" name="Patch_BOT" color="9" fill="4" visible="no" active="yes"/>
<layer number="118" name="Rect_Pads" color="7" fill="1" visible="no" active="yes"/>
<layer number="121" name="_tsilk" color="7" fill="1" visible="no" active="yes"/>
<layer number="122" name="_bsilk" color="7" fill="1" visible="no" active="yes"/>
<layer number="123" name="tTestmark" color="7" fill="1" visible="no" active="yes"/>
<layer number="124" name="bTestmark" color="7" fill="1" visible="no" active="yes"/>
<layer number="125" name="_tNames" color="7" fill="1" visible="no" active="yes"/>
<layer number="126" name="_bNames" color="7" fill="1" visible="no" active="yes"/>
<layer number="127" name="_tValues" color="7" fill="1" visible="no" active="yes"/>
<layer number="128" name="_bValues" color="7" fill="1" visible="no" active="yes"/>
<layer number="129" name="Mask" color="7" fill="1" visible="no" active="yes"/>
<layer number="131" name="tAdjust" color="7" fill="1" visible="no" active="yes"/>
<layer number="132" name="bAdjust" color="7" fill="1" visible="no" active="yes"/>
<layer number="144" name="Drill_legend" color="7" fill="1" visible="no" active="yes"/>
<layer number="150" name="Notes" color="7" fill="1" visible="no" active="yes"/>
<layer number="151" name="HeatSink" color="7" fill="1" visible="no" active="yes"/>
<layer number="152" name="_bDocu" color="7" fill="1" visible="no" active="yes"/>
<layer number="153" name="FabDoc1" color="7" fill="1" visible="no" active="yes"/>
<layer number="154" name="FabDoc2" color="7" fill="1" visible="no" active="yes"/>
<layer number="155" name="FabDoc3" color="7" fill="1" visible="no" active="yes"/>
<layer number="199" name="Contour" color="7" fill="1" visible="no" active="yes"/>
<layer number="200" name="200bmp" color="1" fill="10" visible="no" active="yes"/>
<layer number="201" name="201bmp" color="2" fill="10" visible="no" active="yes"/>
<layer number="202" name="202bmp" color="3" fill="10" visible="no" active="yes"/>
<layer number="203" name="203bmp" color="4" fill="10" visible="no" active="yes"/>
<layer number="204" name="204bmp" color="5" fill="10" visible="no" active="yes"/>
<layer number="205" name="205bmp" color="6" fill="10" visible="no" active="yes"/>
<layer number="206" name="206bmp" color="7" fill="10" visible="no" active="yes"/>
<layer number="207" name="207bmp" color="8" fill="10" visible="no" active="yes"/>
<layer number="208" name="208bmp" color="9" fill="10" visible="no" active="yes"/>
<layer number="209" name="209bmp" color="7" fill="1" visible="no" active="yes"/>
<layer number="210" name="210bmp" color="7" fill="1" visible="no" active="yes"/>
<layer number="211" name="211bmp" color="7" fill="1" visible="no" active="yes"/>
<layer number="212" name="212bmp" color="7" fill="1" visible="no" active="yes"/>
<layer number="213" name="213bmp" color="7" fill="1" visible="no" active="yes"/>
<layer number="214" name="214bmp" color="7" fill="1" visible="no" active="yes"/>
<layer number="215" name="215bmp" color="7" fill="1" visible="no" active="yes"/>
<layer number="216" name="216bmp" color="7" fill="1" visible="no" active="yes"/>
<layer number="217" name="217bmp" color="18" fill="1" visible="no" active="no"/>
<layer number="218" name="218bmp" color="19" fill="1" visible="no" active="no"/>
<layer number="219" name="219bmp" color="20" fill="1" visible="no" active="no"/>
<layer number="220" name="220bmp" color="21" fill="1" visible="no" active="no"/>
<layer number="221" name="221bmp" color="22" fill="1" visible="no" active="no"/>
<layer number="222" name="222bmp" color="23" fill="1" visible="no" active="no"/>
<layer number="223" name="223bmp" color="24" fill="1" visible="no" active="no"/>
<layer number="224" name="224bmp" color="25" fill="1" visible="no" active="no"/>
<layer number="225" name="225bmp" color="7" fill="1" visible="no" active="yes"/>
<layer number="226" name="226bmp" color="7" fill="1" visible="no" active="yes"/>
<layer number="227" name="227bmp" color="7" fill="1" visible="no" active="yes"/>
<layer number="228" name="228bmp" color="7" fill="1" visible="no" active="yes"/>
<layer number="229" name="229bmp" color="7" fill="1" visible="no" active="yes"/>
<layer number="230" name="230bmp" color="7" fill="1" visible="no" active="yes"/>
<layer number="231" name="231bmp" color="7" fill="1" visible="no" active="yes"/>
<layer number="232" name="Eagle3D_PG2" color="7" fill="1" visible="no" active="yes"/>
<layer number="233" name="Eagle3D_PG3" color="7" fill="1" visible="no" active="yes"/>
<layer number="248" name="Housing" color="7" fill="1" visible="no" active="yes"/>
<layer number="249" name="Edge" color="7" fill="1" visible="no" active="yes"/>
<layer number="250" name="Descript" color="3" fill="1" visible="no" active="no"/>
<layer number="251" name="SMDround" color="12" fill="11" visible="no" active="no"/>
<layer number="254" name="cooling" color="7" fill="1" visible="no" active="yes"/>
<layer number="255" name="routoute" color="7" fill="1" visible="no" active="yes"/>
</layers>
<board>
<plain>
<wire x1="1.016" y1="1.016" x2="33.762" y2="1.016" width="0" layer="20"/>
<wire x1="33.762" y1="1.016" x2="33.762" y2="27.864" width="0" layer="20"/>
<wire x1="33.762" y1="27.864" x2="1.016" y2="27.864" width="0" layer="20"/>
<wire x1="1.016" y1="27.864" x2="1.016" y2="1.016" width="0" layer="20"/>
<dimension x1="32.238" y1="0.254" x2="32.258" y2="25.908" x3="42.66060625" y3="13.072884375" textsize="1.778" layer="48"/>
<dimension x1="21.082" y1="1.778" x2="33.782" y2="1.778" x3="27.432" y3="-7.112" textsize="1.778" layer="48"/>
</plain>
<libraries>
<library name="SparkFun-Capacitors" urn="urn:adsk.eagle:library:510">
<description>&lt;h3&gt;SparkFun Capacitors&lt;/h3&gt;
This library contains capacitors. 
&lt;br&gt;
&lt;br&gt;
We've spent an enormous amount of time creating and checking these footprints and parts, but it is &lt;b&gt; the end user's responsibility&lt;/b&gt; to ensure correctness and suitablity for a given componet or application. 
&lt;br&gt;
&lt;br&gt;If you enjoy using this library, please buy one of our products at &lt;a href=" www.sparkfun.com"&gt;SparkFun.com&lt;/a&gt;.
&lt;br&gt;
&lt;br&gt;
&lt;b&gt;Licensing:&lt;/b&gt; Creative Commons ShareAlike 4.0 International - https://creativecommons.org/licenses/by-sa/4.0/ 
&lt;br&gt;
&lt;br&gt;
You are welcome to use this library for commercial purposes. For attribution, we ask that when you begin to sell your device using our footprint, you email us with a link to the product being sold. We want bragging rights that we helped (in a very small part) to create your 8th world wonder. We would like the opportunity to feature your device on our homepage.</description>
<packages>
<package name="CPOL-RADIAL-5MM-10MM" urn="urn:adsk.eagle:footprint:37387/1" library_version="1">
<description>5 mm spaced PTHs in 10 mm diameter silk ring</description>
<wire x1="-1.905" y1="2.54" x2="-3.175" y2="2.54" width="0.2032" layer="21"/>
<wire x1="3.175" y1="2.54" x2="1.905" y2="2.54" width="0.2032" layer="21"/>
<wire x1="2.54" y1="3.175" x2="2.54" y2="1.905" width="0.2032" layer="21"/>
<circle x="0" y="0" radius="5" width="0.2032" layer="21"/>
<pad name="-" x="-2.5" y="0" drill="0.9" diameter="1.9304"/>
<pad name="+" x="2.5" y="0" drill="0.9" diameter="1.9304" shape="square"/>
<text x="0" y="-5.207" size="0.6096" layer="27" font="vector" ratio="20" align="top-center">&gt;Value</text>
<text x="0" y="5.207" size="0.6096" layer="25" font="vector" ratio="20" align="bottom-center">&gt;Name</text>
</package>
</packages>
<packages3d>
<package3d name="CPOL-RADIAL-5MM-10MM" urn="urn:adsk.eagle:package:37412/1" type="box" library_version="1">
<description>5 mm spaced PTHs in 10 mm diameter silk ring</description>
<packageinstances>
<packageinstance name="CPOL-RADIAL-5MM-10MM"/>
</packageinstances>
</package3d>
</packages3d>
</library>
<library name="SparkFun-Connectors" urn="urn:adsk.eagle:library:513">
<description>&lt;h3&gt;SparkFun Connectors&lt;/h3&gt;
This library contains electrically-functional connectors. 
&lt;br&gt;
&lt;br&gt;
We've spent an enormous amount of time creating and checking these footprints and parts, but it is &lt;b&gt; the end user's responsibility&lt;/b&gt; to ensure correctness and suitablity for a given componet or application. 
&lt;br&gt;
&lt;br&gt;If you enjoy using this library, please buy one of our products at &lt;a href=" www.sparkfun.com"&gt;SparkFun.com&lt;/a&gt;.
&lt;br&gt;
&lt;br&gt;
&lt;b&gt;Licensing:&lt;/b&gt; Creative Commons ShareAlike 4.0 International - https://creativecommons.org/licenses/by-sa/4.0/ 
&lt;br&gt;
&lt;br&gt;
You are welcome to use this library for commercial purposes. For attribution, we ask that when you begin to sell your device using our footprint, you email us with a link to the product being sold. We want bragging rights that we helped (in a very small part) to create your 8th world wonder. We would like the opportunity to feature your device on our homepage.</description>
<packages>
<package name="1X04" urn="urn:adsk.eagle:footprint:37702/1" library_version="1">
<description>&lt;h3&gt;Plated Through Hole - 4 Pin&lt;/h3&gt;
&lt;p&gt;Specifications:
&lt;ul&gt;&lt;li&gt;Pin count:4&lt;/li&gt;
&lt;li&gt;Pin pitch:0.1"&lt;/li&gt;
&lt;/ul&gt;&lt;/p&gt;
&lt;p&gt;Example device(s):
&lt;ul&gt;&lt;li&gt;CONN_04&lt;/li&gt;
&lt;/ul&gt;&lt;/p&gt;</description>
<wire x1="6.985" y1="1.27" x2="8.255" y2="1.27" width="0.2032" layer="21"/>
<wire x1="8.255" y1="1.27" x2="8.89" y2="0.635" width="0.2032" layer="21"/>
<wire x1="8.89" y1="-0.635" x2="8.255" y2="-1.27" width="0.2032" layer="21"/>
<wire x1="3.81" y1="0.635" x2="4.445" y2="1.27" width="0.2032" layer="21"/>
<wire x1="4.445" y1="1.27" x2="5.715" y2="1.27" width="0.2032" layer="21"/>
<wire x1="5.715" y1="1.27" x2="6.35" y2="0.635" width="0.2032" layer="21"/>
<wire x1="6.35" y1="-0.635" x2="5.715" y2="-1.27" width="0.2032" layer="21"/>
<wire x1="5.715" y1="-1.27" x2="4.445" y2="-1.27" width="0.2032" layer="21"/>
<wire x1="4.445" y1="-1.27" x2="3.81" y2="-0.635" width="0.2032" layer="21"/>
<wire x1="6.985" y1="1.27" x2="6.35" y2="0.635" width="0.2032" layer="21"/>
<wire x1="6.35" y1="-0.635" x2="6.985" y2="-1.27" width="0.2032" layer="21"/>
<wire x1="8.255" y1="-1.27" x2="6.985" y2="-1.27" width="0.2032" layer="21"/>
<wire x1="-0.635" y1="1.27" x2="0.635" y2="1.27" width="0.2032" layer="21"/>
<wire x1="0.635" y1="1.27" x2="1.27" y2="0.635" width="0.2032" layer="21"/>
<wire x1="1.27" y1="-0.635" x2="0.635" y2="-1.27" width="0.2032" layer="21"/>
<wire x1="1.27" y1="0.635" x2="1.905" y2="1.27" width="0.2032" layer="21"/>
<wire x1="1.905" y1="1.27" x2="3.175" y2="1.27" width="0.2032" layer="21"/>
<wire x1="3.175" y1="1.27" x2="3.81" y2="0.635" width="0.2032" layer="21"/>
<wire x1="3.81" y1="-0.635" x2="3.175" y2="-1.27" width="0.2032" layer="21"/>
<wire x1="3.175" y1="-1.27" x2="1.905" y2="-1.27" width="0.2032" layer="21"/>
<wire x1="1.905" y1="-1.27" x2="1.27" y2="-0.635" width="0.2032" layer="21"/>
<wire x1="-1.27" y1="0.635" x2="-1.27" y2="-0.635" width="0.2032" layer="21"/>
<wire x1="-0.635" y1="1.27" x2="-1.27" y2="0.635" width="0.2032" layer="21"/>
<wire x1="-1.27" y1="-0.635" x2="-0.635" y2="-1.27" width="0.2032" layer="21"/>
<wire x1="0.635" y1="-1.27" x2="-0.635" y2="-1.27" width="0.2032" layer="21"/>
<wire x1="8.89" y1="0.635" x2="8.89" y2="-0.635" width="0.2032" layer="21"/>
<pad name="1" x="0" y="0" drill="1.016" diameter="1.8796" rot="R90"/>
<pad name="2" x="2.54" y="0" drill="1.016" diameter="1.8796" rot="R90"/>
<pad name="3" x="5.08" y="0" drill="1.016" diameter="1.8796" rot="R90"/>
<pad name="4" x="7.62" y="0" drill="1.016" diameter="1.8796" rot="R90"/>
<rectangle x1="7.366" y1="-0.254" x2="7.874" y2="0.254" layer="51"/>
<rectangle x1="4.826" y1="-0.254" x2="5.334" y2="0.254" layer="51"/>
<rectangle x1="2.286" y1="-0.254" x2="2.794" y2="0.254" layer="51"/>
<rectangle x1="-0.254" y1="-0.254" x2="0.254" y2="0.254" layer="51"/>
<text x="-1.27" y="1.397" size="0.6096" layer="25" font="vector" ratio="20">&gt;NAME</text>
<text x="-1.27" y="-2.032" size="0.6096" layer="27" font="vector" ratio="20">&gt;VALUE</text>
</package>
<package name="SCREWTERMINAL-3.5MM-2" urn="urn:adsk.eagle:footprint:37656/1" library_version="1">
<description>&lt;h3&gt;Screw Terminal  3.5mm Pitch - 2 Pin PTH&lt;/h3&gt;
&lt;p&gt;Specifications:
&lt;ul&gt;&lt;li&gt;Pin count: 2&lt;/li&gt;
&lt;li&gt;Pin pitch: 3.5mm/138mil&lt;/li&gt;
&lt;/ul&gt;&lt;/p&gt;
&lt;p&gt;&lt;a href=”https://www.sparkfun.com/datasheets/Prototyping/Screw-Terminal-3.5mm.pdf”&gt;Datasheet referenced for footprint&lt;/a&gt;&lt;/p&gt;
&lt;p&gt;Example device(s):
&lt;ul&gt;&lt;li&gt;CONN_02&lt;/li&gt;
&lt;/ul&gt;&lt;/p&gt;</description>
<circle x="2" y="3" radius="0.2828" width="0.127" layer="51"/>
<wire x1="-1.75" y1="3.4" x2="5.25" y2="3.4" width="0.2032" layer="21"/>
<wire x1="5.25" y1="3.4" x2="5.25" y2="-2.8" width="0.2032" layer="21"/>
<wire x1="5.25" y1="-2.8" x2="5.25" y2="-3.6" width="0.2032" layer="21"/>
<wire x1="5.25" y1="-3.6" x2="-1.75" y2="-3.6" width="0.2032" layer="21"/>
<wire x1="-1.75" y1="-3.6" x2="-1.75" y2="-2.8" width="0.2032" layer="21"/>
<wire x1="-1.75" y1="-2.8" x2="-1.75" y2="3.4" width="0.2032" layer="21"/>
<wire x1="5.25" y1="-2.8" x2="-1.75" y2="-2.8" width="0.2032" layer="21"/>
<wire x1="-1.75" y1="-1.35" x2="-2.25" y2="-1.35" width="0.2032" layer="51"/>
<wire x1="-2.25" y1="-1.35" x2="-2.25" y2="-2.35" width="0.2032" layer="51"/>
<wire x1="-2.25" y1="-2.35" x2="-1.75" y2="-2.35" width="0.2032" layer="51"/>
<wire x1="5.25" y1="3.15" x2="5.75" y2="3.15" width="0.2032" layer="51"/>
<wire x1="5.75" y1="3.15" x2="5.75" y2="2.15" width="0.2032" layer="51"/>
<wire x1="5.75" y1="2.15" x2="5.25" y2="2.15" width="0.2032" layer="51"/>
<pad name="1" x="0" y="0" drill="1.2" diameter="2.032" shape="square"/>
<pad name="2" x="3.5" y="0" drill="1.2" diameter="2.032"/>
<text x="-1.27" y="2.54" size="0.6096" layer="25" font="vector" ratio="20">&gt;NAME</text>
<text x="-1.27" y="1.27" size="0.6096" layer="27" font="vector" ratio="20">&gt;VALUE</text>
</package>
</packages>
<packages3d>
<package3d name="1X04" urn="urn:adsk.eagle:package:38085/1" type="box" library_version="1">
<description>Plated Through Hole - 4 Pin
Specifications:
Pin count:4
Pin pitch:0.1"

Example device(s):
CONN_04
</description>
<packageinstances>
<packageinstance name="1X04"/>
</packageinstances>
</package3d>
<package3d name="SCREWTERMINAL-3.5MM-2" urn="urn:adsk.eagle:package:38050/1" type="box" library_version="1">
<description>Screw Terminal  3.5mm Pitch - 2 Pin PTH
Specifications:
Pin count: 2
Pin pitch: 3.5mm/138mil

Datasheet referenced for footprint
Example device(s):
CONN_02
</description>
<packageinstances>
<packageinstance name="SCREWTERMINAL-3.5MM-2"/>
</packageinstances>
</package3d>
</packages3d>
</library>
<library name="SparkFun-DiscreteSemi" urn="urn:adsk.eagle:library:514">
<description>&lt;h3&gt;SparkFun Discrete Semiconductors&lt;/h3&gt;
This library contains diodes, optoisolators, TRIACs, MOSFETs, transistors, etc. 
&lt;br&gt;
&lt;br&gt;
We've spent an enormous amount of time creating and checking these footprints and parts, but it is &lt;b&gt; the end user's responsibility&lt;/b&gt; to ensure correctness and suitablity for a given componet or application. 
&lt;br&gt;
&lt;br&gt;If you enjoy using this library, please buy one of our products at &lt;a href=" www.sparkfun.com"&gt;SparkFun.com&lt;/a&gt;.
&lt;br&gt;
&lt;br&gt;
&lt;b&gt;Licensing:&lt;/b&gt; Creative Commons ShareAlike 4.0 International - https://creativecommons.org/licenses/by-sa/4.0/ 
&lt;br&gt;
&lt;br&gt;
You are welcome to use this library for commercial purposes. For attribution, we ask that when you begin to sell your device using our footprint, you email us with a link to the product being sold. We want bragging rights that we helped (in a very small part) to create your 8th world wonder. We would like the opportunity to feature your device on our homepage.</description>
<packages>
<package name="TO220V" urn="urn:adsk.eagle:footprint:38410/1" library_version="1">
<description>&lt;b&gt;TO 220 Vertical&lt;/b&gt; Package works with various parts including N-Channel MOSFET SparkFun SKU: COM-10213</description>
<wire x1="-5.08" y1="2.032" x2="-5.08" y2="-0.381" width="0.2032" layer="21"/>
<wire x1="5.08" y1="2.032" x2="5.08" y2="-0.381" width="0.2032" layer="21"/>
<wire x1="5.08" y1="2.032" x2="-5.08" y2="2.032" width="0.2032" layer="21"/>
<wire x1="-5.08" y1="2.032" x2="-5.08" y2="3.048" width="0.2032" layer="21"/>
<wire x1="-5.08" y1="3.048" x2="5.08" y2="3.048" width="0.2032" layer="21"/>
<wire x1="5.08" y1="3.048" x2="5.08" y2="2.032" width="0.2032" layer="21"/>
<wire x1="-5.08" y1="-0.381" x2="-4.191" y2="-1.27" width="0.2032" layer="21" curve="92.798868"/>
<wire x1="4.191" y1="-1.27" x2="5.08" y2="-0.381" width="0.2032" layer="21" curve="92.798868"/>
<wire x1="-4.191" y1="-1.27" x2="-3.81" y2="-1.27" width="0.2032" layer="21"/>
<wire x1="4.191" y1="-1.27" x2="3.81" y2="-1.27" width="0.2032" layer="21"/>
<rectangle x1="-5.08" y1="2.032" x2="5.08" y2="3.048" layer="21"/>
<pad name="1" x="-2.54" y="0" drill="1.016" shape="long" rot="R90"/>
<pad name="2" x="0" y="0" drill="1.016" shape="long" rot="R90"/>
<pad name="3" x="2.54" y="0" drill="1.016" shape="long" rot="R90"/>
<text x="-5.334" y="0.254" size="0.6096" layer="25" font="vector" ratio="20" rot="R90" align="bottom-center">&gt;NAME</text>
<text x="5.334" y="0.254" size="0.6096" layer="27" font="vector" ratio="20" rot="R90" align="top-center">&gt;VALUE</text>
</package>
</packages>
<packages3d>
<package3d name="TO220V" urn="urn:adsk.eagle:package:38447/1" type="box" library_version="1">
<description>TO 220 Vertical Package works with various parts including N-Channel MOSFET SparkFun SKU: COM-10213</description>
<packageinstances>
<packageinstance name="TO220V"/>
</packageinstances>
</package3d>
</packages3d>
</library>
<library name="SparkFun-Resistors" urn="urn:adsk.eagle:library:532">
<description>&lt;h3&gt;SparkFun Resistors&lt;/h3&gt;
This library contains resistors. Reference designator:R. 
&lt;br&gt;
&lt;br&gt;
We've spent an enormous amount of time creating and checking these footprints and parts, but it is &lt;b&gt; the end user's responsibility&lt;/b&gt; to ensure correctness and suitablity for a given componet or application. 
&lt;br&gt;
&lt;br&gt;If you enjoy using this library, please buy one of our products at &lt;a href=" www.sparkfun.com"&gt;SparkFun.com&lt;/a&gt;.
&lt;br&gt;
&lt;br&gt;
&lt;b&gt;Licensing:&lt;/b&gt; Creative Commons ShareAlike 4.0 International - https://creativecommons.org/licenses/by-sa/4.0/ 
&lt;br&gt;
&lt;br&gt;
You are welcome to use this library for commercial purposes. For attribution, we ask that when you begin to sell your device using our footprint, you email us with a link to the product being sold. We want bragging rights that we helped (in a very small part) to create your 8th world wonder. We would like the opportunity to feature your device on our homepage.</description>
<packages>
<package name="AXIAL-0.3" urn="urn:adsk.eagle:footprint:39622/1" library_version="1">
<description>&lt;h3&gt;AXIAL-0.3&lt;/h3&gt;
&lt;p&gt;Commonly used for 1/4W through-hole resistors. 0.3" pitch between holes.&lt;/p&gt;</description>
<wire x1="-2.54" y1="0.762" x2="2.54" y2="0.762" width="0.2032" layer="21"/>
<wire x1="2.54" y1="0.762" x2="2.54" y2="0" width="0.2032" layer="21"/>
<wire x1="2.54" y1="0" x2="2.54" y2="-0.762" width="0.2032" layer="21"/>
<wire x1="2.54" y1="-0.762" x2="-2.54" y2="-0.762" width="0.2032" layer="21"/>
<wire x1="-2.54" y1="-0.762" x2="-2.54" y2="0" width="0.2032" layer="21"/>
<wire x1="-2.54" y1="0" x2="-2.54" y2="0.762" width="0.2032" layer="21"/>
<wire x1="2.54" y1="0" x2="2.794" y2="0" width="0.2032" layer="21"/>
<wire x1="-2.54" y1="0" x2="-2.794" y2="0" width="0.2032" layer="21"/>
<pad name="P$1" x="-3.81" y="0" drill="0.9" diameter="1.8796"/>
<pad name="P$2" x="3.81" y="0" drill="0.9" diameter="1.8796"/>
<text x="0" y="1.016" size="0.6096" layer="25" font="vector" ratio="20" align="bottom-center">&gt;Name</text>
<text x="0" y="-1.016" size="0.6096" layer="27" font="vector" ratio="20" align="top-center">&gt;Value</text>
</package>
</packages>
<packages3d>
<package3d name="AXIAL-0.3" urn="urn:adsk.eagle:package:39658/1" type="box" library_version="1">
<description>AXIAL-0.3
Commonly used for 1/4W through-hole resistors. 0.3" pitch between holes.</description>
<packageinstances>
<packageinstance name="AXIAL-0.3"/>
</packageinstances>
</package3d>
</packages3d>
</library>
<library name="Whmountains">
<packages>
<package name="BOOST-POLOLU">
<pad name="VIN" x="0" y="0" drill="1.016" diameter="1.8796"/>
<pad name="GND" x="2.54" y="0" drill="1.016" diameter="1.8796"/>
<pad name="VOUT" x="5.08" y="0" drill="1.016" diameter="1.8796"/>
<wire x1="-1.27" y1="-1.27" x2="6.35" y2="-1.27" width="0.127" layer="21"/>
<wire x1="6.35" y1="-1.27" x2="6.35" y2="11.811" width="0.127" layer="21"/>
<wire x1="-1.27" y1="-1.27" x2="-1.27" y2="11.811" width="0.127" layer="21"/>
<wire x1="-1.27" y1="11.811" x2="6.35" y2="11.811" width="0.127" layer="21"/>
<text x="0" y="5.08" size="0.6096" layer="25">Pololu Step-Up 
Regulator</text>
<text x="0" y="2.54" size="0.6096" layer="27">&gt;Value</text>
</package>
</packages>
</library>
<library name="SparkFun-Jumpers" urn="urn:adsk.eagle:library:528">
<description>&lt;h3&gt;SparkFun Jumpers&lt;/h3&gt;
In this library you'll find jumpers, or other semipermanent means of changing current paths. The least permanent form is the solder jumper. These can be changed by adding, removing, or moving solder. In cases that are less likely to be changed we have jumpers that are connected with traces. These can be cut with a razor, or reconnected with solder. Reference designator JP.
&lt;br&gt;
&lt;br&gt;
We've spent an enormous amount of time creating and checking these footprints and parts, but it is &lt;b&gt; the end user's responsibility&lt;/b&gt; to ensure correctness and suitablity for a given componet or application. 
&lt;br&gt;
&lt;br&gt;If you enjoy using this library, please buy one of our products at &lt;a href=" www.sparkfun.com"&gt;SparkFun.com&lt;/a&gt;.
&lt;br&gt;
&lt;br&gt;
&lt;b&gt;Licensing:&lt;/b&gt; Creative Commons ShareAlike 4.0 International - https://creativecommons.org/licenses/by-sa/4.0/ 
&lt;br&gt;
&lt;br&gt;
You are welcome to use this library for commercial purposes. For attribution, we ask that when you begin to sell your device using our footprint, you email us with a link to the product being sold. We want bragging rights that we helped (in a very small part) to create your 8th world wonder. We would like the opportunity to feature your device on our homepage.</description>
<packages>
<package name="SMT-JUMPER_2_NC_PASTE_SILK" urn="urn:adsk.eagle:footprint:39261/1" library_version="1">
<text x="0" y="1.143" size="0.6096" layer="25" font="vector" ratio="20" align="bottom-center">&gt;NAME</text>
<text x="0" y="-1.143" size="0.6096" layer="27" font="vector" ratio="20" align="top-center">&gt;VALUE</text>
<wire x1="0.8636" y1="-1.016" x2="-0.8636" y2="-1.016" width="0.1524" layer="21"/>
<wire x1="0.8636" y1="1.016" x2="1.1176" y2="0.762" width="0.1524" layer="21" curve="-90"/>
<wire x1="-1.1176" y1="0.762" x2="-0.8636" y2="1.016" width="0.1524" layer="21" curve="-90"/>
<wire x1="-1.1176" y1="-0.762" x2="-0.8636" y2="-1.016" width="0.1524" layer="21" curve="90"/>
<wire x1="0.8636" y1="-1.016" x2="1.1176" y2="-0.762" width="0.1524" layer="21" curve="90"/>
<wire x1="1.1176" y1="-0.762" x2="1.1176" y2="0.762" width="0.1524" layer="21"/>
<wire x1="-1.1176" y1="-0.762" x2="-1.1176" y2="0.762" width="0.1524" layer="21"/>
<wire x1="-0.8636" y1="1.016" x2="0.8636" y2="1.016" width="0.1524" layer="21"/>
<rectangle x1="-1.2446" y1="-1.1176" x2="1.2446" y2="1.1176" layer="31"/>
<smd name="1" x="-0.4064" y="0" dx="0.635" dy="1.27" layer="1" cream="no"/>
<smd name="2" x="0.4064" y="0" dx="0.635" dy="1.27" layer="1" cream="no"/>
</package>
</packages>
<packages3d>
<package3d name="SMT-JUMPER_2_NC_PASTE_SILK" urn="urn:adsk.eagle:package:39282/1" type="box" library_version="1">
<packageinstances>
<packageinstance name="SMT-JUMPER_2_NC_PASTE_SILK"/>
</packageinstances>
</package3d>
</packages3d>
</library>
</libraries>
<attributes>
</attributes>
<variantdefs>
</variantdefs>
<classes>
<class number="0" name="default" width="0" drill="0">
</class>
</classes>
<designrules name="SparkFun-customizes">
<description language="en">&lt;b&gt;EAGLE Design Rules&lt;/b&gt;
&lt;p&gt;
The default Design Rules have been set to cover
a wide range of applications. Your particular design
may have different requirements, so please make the
necessary adjustments and save your customized
design rules under a new name.</description>
<param name="layerSetup" value="(1*16)"/>
<param name="mtCopper" value="0.035mm 0.035mm 0.035mm 0.035mm 0.035mm 0.035mm 0.035mm 0.035mm 0.035mm 0.035mm 0.035mm 0.035mm 0.035mm 0.035mm 0.035mm 0.035mm"/>
<param name="mtIsolate" value="1.5mm 0.15mm 0.2mm 0.15mm 0.2mm 0.15mm 0.2mm 0.15mm 0.2mm 0.15mm 0.2mm 0.15mm 0.2mm 0.15mm 0.2mm"/>
<param name="mdWireWire" value="8mil"/>
<param name="mdWirePad" value="8mil"/>
<param name="mdWireVia" value="8mil"/>
<param name="mdPadPad" value="8mil"/>
<param name="mdPadVia" value="8mil"/>
<param name="mdViaVia" value="8mil"/>
<param name="mdSmdPad" value="8mil"/>
<param name="mdSmdVia" value="8mil"/>
<param name="mdSmdSmd" value="8mil"/>
<param name="mdViaViaSameLayer" value="8mil"/>
<param name="mnLayersViaInSmd" value="2"/>
<param name="mdCopperDimension" value="8mil"/>
<param name="mdDrill" value="8mil"/>
<param name="mdSmdStop" value="0mil"/>
<param name="msWidth" value="8mil"/>
<param name="msDrill" value="12mil"/>
<param name="msMicroVia" value="9.99mm"/>
<param name="msBlindViaRatio" value="0.5"/>
<param name="rvPadTop" value="0.25"/>
<param name="rvPadInner" value="0.25"/>
<param name="rvPadBottom" value="0.25"/>
<param name="rvViaOuter" value="0.25"/>
<param name="rvViaInner" value="0.25"/>
<param name="rvMicroViaOuter" value="0.25"/>
<param name="rvMicroViaInner" value="0.25"/>
<param name="rlMinPadTop" value="12mil"/>
<param name="rlMaxPadTop" value="20mil"/>
<param name="rlMinPadInner" value="10mil"/>
<param name="rlMaxPadInner" value="20mil"/>
<param name="rlMinPadBottom" value="12mil"/>
<param name="rlMaxPadBottom" value="20mil"/>
<param name="rlMinViaOuter" value="10mil"/>
<param name="rlMaxViaOuter" value="20mil"/>
<param name="rlMinViaInner" value="10mil"/>
<param name="rlMaxViaInner" value="20mil"/>
<param name="rlMinMicroViaOuter" value="4mil"/>
<param name="rlMaxMicroViaOuter" value="20mil"/>
<param name="rlMinMicroViaInner" value="4mil"/>
<param name="rlMaxMicroViaInner" value="20mil"/>
<param name="psTop" value="-1"/>
<param name="psBottom" value="-1"/>
<param name="psFirst" value="-1"/>
<param name="psElongationLong" value="100"/>
<param name="psElongationOffset" value="100"/>
<param name="mvStopFrame" value="1"/>
<param name="mvCreamFrame" value="0"/>
<param name="mlMinStopFrame" value="4mil"/>
<param name="mlMaxStopFrame" value="4mil"/>
<param name="mlMinCreamFrame" value="0mil"/>
<param name="mlMaxCreamFrame" value="0mil"/>
<param name="mlViaStopLimit" value="25mil"/>
<param name="srRoundness" value="0"/>
<param name="srMinRoundness" value="0mil"/>
<param name="srMaxRoundness" value="0mil"/>
<param name="slThermalIsolate" value="10mil"/>
<param name="slThermalsForVias" value="0"/>
<param name="dpMaxLengthDifference" value="10mm"/>
<param name="dpGapFactor" value="2.5"/>
<param name="checkAngle" value="0"/>
<param name="checkFont" value="1"/>
<param name="checkRestrict" value="1"/>
<param name="checkStop" value="0"/>
<param name="checkValues" value="0"/>
<param name="checkNames" value="1"/>
<param name="checkWireStubs" value="1"/>
<param name="checkPolygonWidth" value="0"/>
<param name="useDiameter" value="13"/>
<param name="maxErrors" value="50"/>
</designrules>
<autorouter>
<pass name="Default">
<param name="RoutingGrid" value="50mil"/>
<param name="AutoGrid" value="1"/>
<param name="Efforts" value="0"/>
<param name="TopRouterVariant" value="1"/>
<param name="tpViaShape" value="round"/>
<param name="PrefDir.1" value="a"/>
<param name="PrefDir.2" value="0"/>
<param name="PrefDir.3" value="0"/>
<param name="PrefDir.4" value="0"/>
<param name="PrefDir.5" value="0"/>
<param name="PrefDir.6" value="0"/>
<param name="PrefDir.7" value="0"/>
<param name="PrefDir.8" value="0"/>
<param name="PrefDir.9" value="0"/>
<param name="PrefDir.10" value="0"/>
<param name="PrefDir.11" value="0"/>
<param name="PrefDir.12" value="0"/>
<param name="PrefDir.13" value="0"/>
<param name="PrefDir.14" value="0"/>
<param name="PrefDir.15" value="0"/>
<param name="PrefDir.16" value="a"/>
<param name="cfVia" value="8"/>
<param name="cfNonPref" value="5"/>
<param name="cfChangeDir" value="2"/>
<param name="cfOrthStep" value="2"/>
<param name="cfDiagStep" value="3"/>
<param name="cfExtdStep" value="0"/>
<param name="cfBonusStep" value="1"/>
<param name="cfMalusStep" value="1"/>
<param name="cfPadImpact" value="4"/>
<param name="cfSmdImpact" value="4"/>
<param name="cfBusImpact" value="0"/>
<param name="cfHugging" value="3"/>
<param name="cfAvoid" value="4"/>
<param name="cfPolygon" value="10"/>
<param name="cfBase.1" value="0"/>
<param name="cfBase.2" value="1"/>
<param name="cfBase.3" value="1"/>
<param name="cfBase.4" value="1"/>
<param name="cfBase.5" value="1"/>
<param name="cfBase.6" value="1"/>
<param name="cfBase.7" value="1"/>
<param name="cfBase.8" value="1"/>
<param name="cfBase.9" value="1"/>
<param name="cfBase.10" value="1"/>
<param name="cfBase.11" value="1"/>
<param name="cfBase.12" value="1"/>
<param name="cfBase.13" value="1"/>
<param name="cfBase.14" value="1"/>
<param name="cfBase.15" value="1"/>
<param name="cfBase.16" value="0"/>
<param name="mnVias" value="20"/>
<param name="mnSegments" value="9999"/>
<param name="mnExtdSteps" value="9999"/>
<param name="mnRipupLevel" value="10"/>
<param name="mnRipupSteps" value="100"/>
<param name="mnRipupTotal" value="100"/>
</pass>
<pass name="Follow-me" refer="Default" active="yes">
</pass>
<pass name="Busses" refer="Default" active="yes">
<param name="cfNonPref" value="4"/>
<param name="cfBusImpact" value="4"/>
<param name="cfHugging" value="0"/>
<param name="mnVias" value="0"/>
</pass>
<pass name="Route" refer="Default" active="yes">
</pass>
<pass name="Optimize1" refer="Default" active="yes">
<param name="cfVia" value="99"/>
<param name="cfExtdStep" value="10"/>
<param name="cfHugging" value="1"/>
<param name="mnExtdSteps" value="1"/>
<param name="mnRipupLevel" value="0"/>
</pass>
<pass name="Optimize2" refer="Optimize1" active="yes">
<param name="cfNonPref" value="0"/>
<param name="cfChangeDir" value="6"/>
<param name="cfExtdStep" value="0"/>
<param name="cfBonusStep" value="2"/>
<param name="cfMalusStep" value="2"/>
<param name="cfPadImpact" value="2"/>
<param name="cfSmdImpact" value="2"/>
<param name="cfHugging" value="0"/>
</pass>
<pass name="Optimize3" refer="Optimize2" active="yes">
<param name="cfChangeDir" value="8"/>
<param name="cfPadImpact" value="0"/>
<param name="cfSmdImpact" value="0"/>
</pass>
<pass name="Optimize4" refer="Optimize3" active="yes">
<param name="cfChangeDir" value="25"/>
</pass>
</autorouter>
<elements>
<element name="C1" library="SparkFun-Capacitors" library_urn="urn:adsk.eagle:library:510" package="CPOL-RADIAL-5MM-10MM" package3d_urn="urn:adsk.eagle:package:37412/1" value="1mF" x="29.21" y="2.54" smashed="yes">
<attribute name="NAME" x="29.21" y="7.747" size="0.6096" layer="25" font="vector" ratio="20" align="bottom-center"/>
<attribute name="PROD_ID" value="CAP-09538" x="57.15" y="-3.81" size="1.778" layer="27" display="off"/>
<attribute name="VALUE" x="29.21" y="-2.667" size="0.6096" layer="27" font="vector" ratio="20" align="top-center"/>
</element>
<element name="J1" library="SparkFun-Connectors" library_urn="urn:adsk.eagle:library:513" package="1X04" package3d_urn="urn:adsk.eagle:package:38085/1" value="" x="8.89" y="2.54" smashed="yes">
<attribute name="NAME" x="7.62" y="3.937" size="0.6096" layer="25" font="vector" ratio="20"/>
<attribute name="PROD_ID" value="CONN-09696" x="40.64" y="-20.32" size="1.778" layer="27" display="off"/>
<attribute name="VALUE" x="7.62" y="0.508" size="0.6096" layer="27" font="vector" ratio="20"/>
</element>
<element name="Q1" library="SparkFun-DiscreteSemi" library_urn="urn:adsk.eagle:library:514" package="TO220V" package3d_urn="urn:adsk.eagle:package:38447/1" value="60V/32A/35mΩ" x="8.382" y="21.082" smashed="yes" rot="R270">
<attribute name="NAME" x="8.636" y="26.416" size="0.6096" layer="25" font="vector" ratio="20" align="bottom-center"/>
<attribute name="PROD_ID" value="TRANS-10060" x="-9.398" y="2.032" size="1.778" layer="27" rot="R270" display="off"/>
<attribute name="VALUE" x="8.636" y="15.748" size="0.6096" layer="27" font="vector" ratio="20" align="top-center"/>
</element>
<element name="R1" library="SparkFun-Resistors" library_urn="urn:adsk.eagle:library:532" package="AXIAL-0.3" package3d_urn="urn:adsk.eagle:package:39658/1" value="100k" x="4.064" y="21.336" smashed="yes" rot="R90">
<attribute name="NAME" x="3.048" y="21.336" size="0.6096" layer="25" font="vector" ratio="20" rot="R90" align="bottom-center"/>
<attribute name="PROD_ID" value="RES-10686" x="28.194" y="39.116" size="1.778" layer="27" rot="R90" display="off"/>
<attribute name="VALUE" x="5.08" y="21.336" size="0.6096" layer="27" font="vector" ratio="20" rot="R90" align="top-center"/>
</element>
<element name="U$1" library="Whmountains" package="BOOST-POLOLU" value="" x="19.304" y="7.112" smashed="yes" rot="R90">
<attribute name="VALUE" x="16.764" y="7.112" size="0.6096" layer="27" rot="R90"/>
</element>
<element name="J2" library="SparkFun-Connectors" library_urn="urn:adsk.eagle:library:513" package="SCREWTERMINAL-3.5MM-2" package3d_urn="urn:adsk.eagle:package:38050/1" value="" x="3.81" y="10.668" smashed="yes" rot="R270">
<attribute name="NAME" x="6.35" y="11.938" size="0.6096" layer="25" font="vector" ratio="20" rot="R270"/>
<attribute name="PROD_ID" value="CONN-08399" x="3.81" y="10.668" size="1.778" layer="27" rot="R270" display="off"/>
<attribute name="VALUE" x="5.08" y="11.938" size="0.6096" layer="27" font="vector" ratio="20" rot="R270"/>
</element>
<element name="JP1" library="SparkFun-Jumpers" library_urn="urn:adsk.eagle:library:528" package="SMT-JUMPER_2_NC_PASTE_SILK" package3d_urn="urn:adsk.eagle:package:39282/1" value="JUMPER-SMT_2_NC_PASTE_SILK" x="6.604" y="7.112" smashed="yes" rot="MR180">
<attribute name="NAME" x="6.604" y="5.969" size="0.6096" layer="26" font="vector" ratio="20" rot="MR180" align="bottom-center"/>
<attribute name="VALUE" x="6.604" y="8.255" size="0.6096" layer="28" font="vector" ratio="20" rot="MR180" align="top-center"/>
</element>
<element name="JP2" library="SparkFun-Jumpers" library_urn="urn:adsk.eagle:library:528" package="SMT-JUMPER_2_NC_PASTE_SILK" package3d_urn="urn:adsk.eagle:package:39282/1" value="JUMPER-SMT_2_NC_PASTE_SILK" x="6.604" y="10.668" smashed="yes" rot="MR180">
<attribute name="NAME" x="6.604" y="9.525" size="0.6096" layer="26" font="vector" ratio="20" rot="MR180" align="bottom-center"/>
<attribute name="VALUE" x="6.604" y="11.811" size="0.6096" layer="28" font="vector" ratio="20" rot="MR180" align="top-center"/>
</element>
</elements>
<signals>
<signal name="EN">
<contactref element="Q1" pad="1"/>
<contactref element="R1" pad="P$2"/>
<contactref element="J1" pad="3"/>
<wire x1="8.382" y1="23.622" x2="5.588" y2="23.622" width="0.254" layer="1"/>
<wire x1="4.064" y1="25.146" x2="5.588" y2="23.622" width="0.254" layer="1"/>
<wire x1="13.97" y1="21.336" x2="13.97" y2="2.54" width="0.254" layer="16"/>
<wire x1="13.97" y1="21.336" x2="11.684" y2="23.622" width="0.254" layer="16"/>
<wire x1="8.382" y1="23.622" x2="11.684" y2="23.622" width="0.254" layer="16"/>
</signal>
<signal name="GND">
<contactref element="R1" pad="P$1"/>
<contactref element="Q1" pad="3"/>
<contactref element="JP2" pad="1"/>
<contactref element="J2" pad="1"/>
<wire x1="8.382" y1="18.542" x2="8.382" y2="12.954" width="1.27" layer="1"/>
<wire x1="8.382" y1="18.542" x2="5.08" y2="18.542" width="0.254" layer="1"/>
<wire x1="5.08" y1="18.542" x2="4.064" y2="17.526" width="0.254" layer="1"/>
<wire x1="3.81" y1="10.668" x2="5.8547" y2="10.668" width="1.27" layer="16"/>
<wire x1="8.382" y1="12.954" x2="6.096" y2="10.668" width="1.27" layer="1"/>
<wire x1="6.096" y1="10.668" x2="3.81" y2="10.668" width="1.27" layer="1"/>
<wire x1="6.096" y1="10.668" x2="6.1976" y2="10.668" width="0" layer="19" extent="1-16"/>
</signal>
<signal name="N$3">
<contactref element="Q1" pad="2"/>
<contactref element="U$1" pad="GND"/>
<contactref element="C1" pad="-"/>
<wire x1="19.304" y1="9.652" x2="16.002" y2="9.652" width="1.27" layer="1"/>
<wire x1="13.97" y1="11.684" x2="13.97" y2="19.05" width="1.27" layer="1"/>
<wire x1="13.97" y1="19.05" x2="11.938" y2="21.082" width="1.27" layer="1"/>
<wire x1="8.382" y1="21.082" x2="11.938" y2="21.082" width="1.27" layer="1"/>
<wire x1="16.002" y1="9.652" x2="13.97" y2="11.684" width="1.27" layer="1"/>
<wire x1="26.71" y1="2.54" x2="26.71" y2="4.440575" width="1.27" layer="1"/>
<wire x1="26.71" y1="4.440575" x2="21.498575" y2="9.652" width="1.27" layer="1"/>
<wire x1="19.304" y1="9.652" x2="21.498575" y2="9.652" width="1.27" layer="1"/>
</signal>
<signal name="VOUT">
<contactref element="C1" pad="+"/>
<contactref element="U$1" pad="VOUT"/>
<wire x1="19.304" y1="12.192" x2="22.058" y2="12.192" width="1.27" layer="1"/>
<wire x1="22.058" y1="12.192" x2="31.71" y2="2.54" width="1.27" layer="1"/>
<wire x1="31.71" y1="2.54" x2="29.678" y2="4.572" width="1.27" layer="16"/>
<wire x1="29.678" y1="4.572" x2="23.876" y2="4.572" width="1.27" layer="16"/>
<wire x1="23.876" y1="4.572" x2="21.844" y2="2.54" width="1.27" layer="16"/>
<contactref element="J1" pad="4"/>
<wire x1="21.844" y1="2.54" x2="16.51" y2="2.54" width="1.27" layer="16"/>
</signal>
<signal name="VIN">
<contactref element="U$1" pad="VIN"/>
<contactref element="JP1" pad="1"/>
<contactref element="J2" pad="2"/>
<wire x1="3.81" y1="7.168" x2="5.7987" y2="7.168" width="1.27" layer="16"/>
<wire x1="5.7987" y1="7.168" x2="5.8547" y2="7.112" width="1.27" layer="16"/>
<wire x1="3.81" y1="7.168" x2="19.248" y2="7.168" width="1.27" layer="1"/>
<wire x1="19.248" y1="7.168" x2="19.304" y2="7.112" width="1.27" layer="1"/>
<wire x1="5.8547" y1="7.112" x2="6.1976" y2="7.112" width="0" layer="19" extent="16-16"/>
</signal>
<signal name="N$1">
<contactref element="JP1" pad="2"/>
<contactref element="J1" pad="1"/>
<wire x1="8.89" y1="2.54" x2="8.89" y2="6.35" width="1.27" layer="16"/>
<wire x1="8.89" y1="6.35" x2="8.128" y2="7.112" width="1.27" layer="16"/>
<wire x1="8.128" y1="7.112" x2="7.3533" y2="7.112" width="1.27" layer="16"/>
<wire x1="7.3533" y1="7.112" x2="7.0104" y2="7.112" width="0" layer="19" extent="16-16"/>
</signal>
<signal name="N$2">
<contactref element="JP2" pad="2"/>
<contactref element="J1" pad="2"/>
<wire x1="11.43" y1="2.54" x2="11.43" y2="8.636" width="1.27" layer="16"/>
<wire x1="9.398" y1="10.668" x2="7.3533" y2="10.668" width="1.27" layer="16"/>
<wire x1="11.43" y1="8.636" x2="9.398" y2="10.668" width="1.27" layer="16"/>
<wire x1="7.3533" y1="10.668" x2="7.0104" y2="10.668" width="0" layer="19" extent="16-16"/>
</signal>
</signals>
<mfgpreviewcolors>
<mfgpreviewcolor name="soldermaskcolor" color="0xC8008000"/>
<mfgpreviewcolor name="silkscreencolor" color="0xFFFEFEFE"/>
<mfgpreviewcolor name="backgroundcolor" color="0xFF282828"/>
<mfgpreviewcolor name="coppercolor" color="0xFFFFBF00"/>
<mfgpreviewcolor name="substratecolor" color="0xFF786E46"/>
</mfgpreviewcolors>
</board>
</drawing>
<compatibility>
<note version="6.3" minversion="6.2.2" severity="warning">
Since Version 6.2.2 text objects can contain more than one line,
which will not be processed correctly with this version.
</note>
<note version="8.2" severity="warning">
Since Version 8.2, EAGLE supports online libraries. The ids
of those online libraries will not be understood (or retained)
with this version.
</note>
<note version="8.3" severity="warning">
Since Version 8.3, EAGLE supports URNs for individual library
assets (packages, symbols, and devices). The URNs of those assets
will not be understood (or retained) with this version.
</note>
<note version="8.3" severity="warning">
Since Version 8.3, EAGLE supports the association of 3D packages
with devices in libraries, schematics, and board files. Those 3D
packages will not be understood (or retained) with this version.
</note>
</compatibility>
</eagle>
